\relax 
\gdef \LT@i {\LT@entry 
    {3}{119.86418pt}\LT@entry 
    {3}{167.63593pt}\LT@entry 
    {1}{41.37471pt}}
\gdef \LT@ii {\LT@entry 
    {3}{141.4709pt}\LT@entry 
    {2}{130.47379pt}\LT@entry 
    {1}{41.37471pt}}
\gdef \LT@iii {\LT@entry 
    {1}{154.3652pt}\LT@entry 
    {4}{164.70262pt}\LT@entry 
    {6}{50.5135pt}}
